{
    "results": [
        {
            "popularity": 304.753,
            "vote_count": 687,
            "video": false,
            "poster_path": "/qdfARIhgpgZOBh3vfNhWS4hmSo3.jpg",
            "id": 330457,
            "adult": false,
            "backdrop_path": "/xJWPZIYOEFIjZpBL7SVBGnzRYXp.jpg",
            "original_language": "en",
            "original_title": "Frozen",
            "genre_ids": [
                16,
                10402,
                10751
            ],
            "title": "Frozen",
            "vote_average": 7,
            "overview": "Elsa, Anna, Kristoff and Olaf head far into the forest to learn the truth about an ancient mystery of their kingdom.",
            "release_date": "2019-11-20"
        },
        {
            "popularity": 155.936,
            "vote_count": 44,
            "video": false,
            "poster_path": "/jyw8VKYEiM1UDzPB7NsisUgBeJ8.jpg",
            "id": 512200,
            "adult": false,
            "backdrop_path": "/zTxHf9iIOCqRbxvl8W5QYKrsMLq.jpg",
            "original_language": "en",
            "original_title": "Jumanji: The Next Level",
            "genre_ids": [
                28,
                12,
                35,
                14
            ],
            "title": "Jumanji: The Next Level",
            "vote_average": 7.5,
            "overview": "Spencer returns to the world of Jumanji, prompting his friends, his grandfather and his grandfather’s friend to enter a different and more dangerous version to save him.",
            "release_date": "2019-12-04"
        },
        {
            "popularity": 146.987,
            "vote_count": 0,
            "video": false,
            "poster_path": "/vn94LlNrbUWIZZyAdmvUepFBeaY.jpg",
            "id": 449924,
            "adult": false,
            "backdrop_path": "/ekP6EVxL81lZ4ivcqPsoZ72rY0h.jpg",
            "original_language": "cn",
            "original_title": "葉問4",
            "genre_ids": [
                28,
                18,
                36
            ],
            "title": "Ip Man 4: The Finale",
            "vote_average": 0,
            "overview": "Ip Man 4 is an upcoming Hong Kong biographical martial arts film directed by Wilson Yip and produced by Raymond Wong. It is the fourth in the Ip Man film series based on the life of the Wing Chun grandmaster of the same name and features Donnie Yen reprising the role. The film began production in April 2018 and ended in July the same year.",
            "release_date": "2019-12-20"
        },
        {
            "popularity": 59.901,
            "vote_count": 0,
            "video": false,
            "poster_path": "/4I0CQfnMy6sRR7QhgqsXR16TmIs.jpg",
            "id": 645541,
            "adult": false,
            "backdrop_path": "/sxPycUAaLJJGq2lhhgzR96ePaO0.jpg",
            "original_language": "en",
            "original_title": "Ellipse",
            "genre_ids": [
                878
            ],
            "title": "Ellipse",
            "vote_average": 0,
            "overview": "A man and his dog are stranded on a volatile, oval-shaped planet and are forced to adapt and escape before time destroys them both.",
            "release_date": "2019-12-12"
        },
        {
            "popularity": 71.501,
            "vote_count": 1606,
            "video": false,
            "poster_path": "/7IiTTgloJzvGI1TAYymCfbfl3vT.jpg",
            "id": 496243,
            "adult": false,
            "backdrop_path": "/TU9NIjwzjoKPwQHoHshkFcQUCG.jpg",
            "original_language": "ko",
            "original_title": "기생충",
            "genre_ids": [
                35,
                18
            ],
            "title": "Parasite",
            "vote_average": 8.5,
            "overview": "All unemployed, Ki-taek's family takes peculiar interest in the wealthy and glamorous Parks for their livelihood until they get entangled in an unexpected incident.",
            "release_date": "2019-05-30"
        },
        {
            "popularity": 66.377,
            "vote_count": 753,
            "video": false,
            "poster_path": "/fapXd3v9qTcNBTm39ZC4KUVQDNf.jpg",
            "id": 423204,
            "adult": false,
            "backdrop_path": "/k2WyDw2NTUIWnuEs5gT7wgrCQg6.jpg",
            "original_language": "en",
            "original_title": "Angel Has Fallen",
            "genre_ids": [
                28,
                53
            ],
            "title": "Angel Has Fallen",
            "vote_average": 5.8,
            "overview": "After a treacherous attack, Secret Service agent Mike Banning is charged with attempting to assassinate President Trumbull. Chased by his own colleagues and the FBI, Banning begins a race against the clock to clear his name.",
            "release_date": "2019-08-21"
        },
        {
            "popularity": 58.513,
            "vote_count": 0,
            "video": false,
            "poster_path": "/db32LaOibwEliAmSL2jjDF6oDdj.jpg",
            "id": 181812,
            "adult": false,
            "backdrop_path": "/jOzrELAzFxtMx2I4uDGHOotdfsS.jpg",
            "original_language": "en",
            "original_title": "Star Wars: The Rise of Skywalker",
            "genre_ids": [
                28,
                12,
                878
            ],
            "title": "Star Wars: The Rise of Skywalker",
            "vote_average": 0,
            "overview": "The next installment in the franchise and the conclusion of the “Star Wars“ sequel trilogy as well as the “Skywalker Saga.“",
            "release_date": "2019-12-18"
        },
        {
            "popularity": 48.661,
            "vote_count": 1002,
            "video": false,
            "poster_path": "/tBuabjEqxzoUBHfbyNbd8ulgy5j.jpg",
            "id": 420809,
            "adult": false,
            "backdrop_path": "/skvI4rYFrKXS73BJxWGH54Omlvv.jpg",
            "original_language": "en",
            "original_title": "Maleficent: Mistress of Evil",
            "genre_ids": [
                12,
                14,
                10751
            ],
            "title": "Maleficent: Mistress of Evil",
            "vote_average": 7.2,
            "overview": "Maleficent and her goddaughter Aurora begin to question the complex family ties that bind them as they are pulled in different directions by impending nuptials, unexpected allies, and dark new forces at play.",
            "release_date": "2019-10-16"
        },
        {
            "popularity": 38.971,
            "vote_count": 137,
            "video": false,
            "poster_path": "/hj8pyoNnynGeJTAbl7jcLZO8Uhx.jpg",
            "id": 522162,
            "adult": false,
            "backdrop_path": "/1ZSjrBUHP2jm1QlQEyLGufL289q.jpg",
            "original_language": "en",
            "original_title": "Midway",
            "genre_ids": [
                28,
                18,
                36,
                10752
            ],
            "title": "Midway",
            "vote_average": 6.6,
            "overview": "The story of the soldiers and aviators who helped turn the tide of the Second World War during the iconic Battle of Midway in June 1942.",
            "release_date": "2019-11-06"
        },
        {
            "popularity": 39.656,
            "vote_count": 110,
            "video": false,
            "poster_path": "/mDeES2L2lhW8rJSyAKZMuKqZM7e.jpg",
            "id": 549053,
            "adult": false,
            "backdrop_path": "/eZ9wYTk9Gy2zYEv8rhRG3IoPuXG.jpg",
            "original_language": "en",
            "original_title": "Last Christmas",
            "genre_ids": [
                35,
                18,
                10749
            ],
            "title": "Last Christmas",
            "vote_average": 7,
            "overview": "Kate is a young woman subscribed to bad decisions. Her last date with disaster? That of having accepted to work as Santa's elf for a department store. However, she meets Tom there. Her life takes a new turn. For Kate, it seems too good to be true.",
            "release_date": "2019-11-07"
        },
        {
            "popularity": 20.176,
            "vote_count": 26,
            "video": false,
            "poster_path": "/casC9Go5og9fezINXkr2UgGVvV1.jpg",
            "id": 487616,
            "adult": false,
            "backdrop_path": "/r3LHZUzgQg0SvaaaDcubsIgTtK9.jpg",
            "original_language": "fr",
            "original_title": "Curiosa",
            "genre_ids": [
                18,
                36
            ],
            "title": "Curiosa",
            "vote_average": 6,
            "overview": "A passionate love story set against a backdrop of sexual freedom, loosely based on the relationship between 19th century authors Pierre Louÿs and Marie de Régnier",
            "release_date": "2019-04-03"
        },
        {
            "popularity": 30.567,
            "vote_count": 230,
            "video": false,
            "poster_path": "/uaXNjRkDdjfxfVuKHo25wkA6CiA.jpg",
            "id": 481084,
            "adult": false,
            "backdrop_path": "/ur4NTeFGZmQ6Hz5uEkAMgPI3WRg.jpg",
            "original_language": "en",
            "original_title": "The Addams Family",
            "genre_ids": [
                16,
                35,
                14,
                10751
            ],
            "title": "The Addams Family",
            "vote_average": 6.1,
            "overview": "The Addams family's lives begin to unravel when they face-off against a treacherous, greedy crafty reality-TV host while also preparing for their extended family to arrive for a major celebration.",
            "release_date": "2019-10-10"
        },
        {
            "popularity": 29.378,
            "vote_count": 36,
            "video": false,
            "poster_path": "/8lSuziVF8TChwOczftjbxhpuu09.jpg",
            "id": 535292,
            "adult": false,
            "backdrop_path": "/blUCzzkFNWrur18J0BvIYBdbquv.jpg",
            "original_language": "en",
            "original_title": "21 Bridges",
            "genre_ids": [
                28,
                80,
                18,
                53
            ],
            "title": "21 Bridges",
            "vote_average": 6.3,
            "overview": "A disgraced NYPD detective after being thrust into a citywide manhunt for a cop killer, is given a shot at redemption.",
            "release_date": "2019-10-24"
        },
        {
            "popularity": 28.376,
            "vote_count": 0,
            "video": false,
            "poster_path": "/3cn0FmkBPu6KzN2SQM0k2JfPvkB.jpg",
            "id": 530915,
            "adult": false,
            "backdrop_path": "/ds9GKAMhxv5AbprmZ2xCpK8FiEG.jpg",
            "original_language": "en",
            "original_title": "1917",
            "genre_ids": [
                18,
                36,
                10752
            ],
            "title": "1917",
            "vote_average": 0,
            "overview": "At the height of the First World War, two young British soldiers, Schofield and Blake are given a seemingly impossible mission. In a race against time, they must cross enemy territory and deliver a message that will stop a deadly attack on hundreds of soldiers—Blake's own brother among them.",
            "release_date": "2019-12-10"
        },
        {
            "popularity": 24.703,
            "vote_count": 0,
            "video": false,
            "poster_path": "/hIJXQFwWskgQcXt2nXMP1zs3Ru9.jpg",
            "id": 536869,
            "adult": false,
            "backdrop_path": "/uCaQbl9ciesqEhSYRMlzkVQZXf2.jpg",
            "original_language": "en",
            "original_title": "Cats",
            "genre_ids": [
                35,
                18,
                14,
                10402
            ],
            "title": "Cats",
            "vote_average": 0,
            "overview": "A tribe of cats called the Jellicles must decide yearly which one will ascend to the Heaviside Layer and come back to a new Jellicle life.",
            "release_date": "2019-12-12"
        },
        {
            "popularity": 20.654,
            "vote_count": 14,
            "video": false,
            "poster_path": "/ApZ6eymKwLJJnwxb9JskYRdjq7j.jpg",
            "id": 611914,
            "adult": false,
            "backdrop_path": "/sdjlVjkRwezP9G1a8TKwrnolRxI.jpg",
            "original_language": "en",
            "original_title": "The Courier",
            "genre_ids": [
                28,
                18,
                53
            ],
            "title": "The Courier",
            "vote_average": 6.1,
            "overview": "This intense action-thriller unfolds in real time as two embattled souls fight for their lives. Gary Oldman stars as a vicious crime boss out to kill Nick, the lone witness set to testify against him. He hires a mysterious female motorcycle courier to unknowingly deliver a poison-gas bomb to slay Nick, but after she rescues Nick from certain death, the duo must confront an army of ruthless hired killers in order to survive the night.",
            "release_date": "2019-11-22"
        },
        {
            "popularity": 38.193,
            "vote_count": 23,
            "video": false,
            "poster_path": "/zPQzLZnfVw9fbXyxxglyOsmQBlu.jpg",
            "id": 366668,
            "adult": false,
            "backdrop_path": "/axmxVeX5R1FfN7w4LNFehskDxW1.jpg",
            "original_language": "en",
            "original_title": "Playmobil: The Movie",
            "genre_ids": [
                12,
                16,
                35,
                10751
            ],
            "title": "Playmobil: The Movie",
            "vote_average": 5.7,
            "overview": "Marla is forced to abandon her carefully structured life to embark on an epic journey to find her younger brother Charlie who has disappeared into the vast and wondrous animated world of Playmobil toys.",
            "release_date": "2019-08-07"
        },
        {
            "popularity": 22.639,
            "vote_count": 12,
            "video": false,
            "poster_path": "/5YHjyjd2N0ZXcnGuB8G1nIa6h9t.jpg",
            "id": 416153,
            "adult": false,
            "backdrop_path": "/uTfdOozort4sp9kukWxEmdmRsqJ.jpg",
            "original_language": "en",
            "original_title": "Arctic Dogs",
            "genre_ids": [
                16
            ],
            "title": "Arctic Dogs",
            "vote_average": 5.9,
            "overview": "Animals band together to save the day when the evil Otto Von Walrus hatches a sinister scheme to accelerate global warming and melt the Arctic Circle.",
            "release_date": "2019-11-01"
        },
        {
            "popularity": 23.889,
            "vote_count": 0,
            "video": false,
            "poster_path": "/30YacPAcxpNemhhwX0PVUl9pVA3.jpg",
            "id": 431693,
            "adult": false,
            "backdrop_path": "/nZ1N5tDpoNm8UJBmWGoTZCRiDoQ.jpg",
            "original_language": "en",
            "original_title": "Spies in Disguise",
            "genre_ids": [
                28,
                12,
                16
            ],
            "title": "Spies in Disguise",
            "vote_average": 0,
            "overview": "When the world's best spy is turned into a pigeon, he must rely on his nerdy tech officer to save the world.",
            "release_date": "2019-12-24"
        },
        {
            "popularity": 20.439,
            "vote_count": 30,
            "video": false,
            "poster_path": "/6kmxXfg3aSWrzUlEPt2L0YD4jz9.jpg",
            "id": 511322,
            "adult": false,
            "backdrop_path": "/z3nOqR0ap2FpCSenMRpucxQMw3P.jpg",
            "original_language": "en",
            "original_title": "The Good Liar",
            "genre_ids": [
                18,
                9648
            ],
            "title": "The Good Liar",
            "vote_average": 6.5,
            "overview": "An aging con artist cannot believe his luck when he meets a wealthy widow and marks her as his next target. But she hides a secret of her own.",
            "release_date": "2019-11-08"
        }
    ],
    "page": 1,
    "total_results": 277,
    "dates": {
        "maximum": "2019-12-31",
        "minimum": "2019-12-12"
    },
    "total_pages": 14
}
